Generate DiLP results — dilp • dilp
…
    References

Allen, S. E., Lowe, A. J., Peppe, D. J., & Meyer, H. W. (2020). Paleoclimate and paleoecology of the latest Eocene Florissant flora of central Colorado, USA. Palaeogeography, Palaeoclimatology, Palaeoecology, 551, 109678.

Peppe, D.J., Royer, D.L., Cariglino, B., Oliver, S.Y., Newman, S., Leight, E., Enikolopov, G., Fernandez-Burgos, M., Herrera, F., Adams, J.M., Correa, E., Currano, E.D., Erickson, J.M., Hinojosa, L.F., Hoganson, J.W., Iglesias, A., Jaramillo, C.A., Johnson, K.R., Jordan, G.J., Kraft, N.J.B., Lovelock, E.C., Lusk, C.H., Niinemets, Ü., Peñuelas, J., Rapson, G., Wing, S.L. and Wright, I.J. (2011), Sensitivity of leaf size and shape to climate: global patterns and paleoclimatic applications. New Phytologist, 190: 724-739. https://doi.org/10.1111/j.1469-8137.2010.03615.x

Lowe. A.J., Flynn, A.G., Butrim, M.J., Baumgartner, A., Peppe, D.J., and Royer, D.L. (2024), Reconstructing terrestrial paleoclimate and paleoecology with fossil leaves using Digital Leaf Physiognomy and leaf mass per area.  JoVE.

    Examples

dilp_results <- dilp(McAbeeExample)
dilp_results$processed_leaf_data
#> # A tibble: 192 × 40
#>    site      specimen_number morphotype measurer_comments margin petiole_width
#>    <chr>     <chr>           <chr>      <chr>              <dbl>         <dbl>
#>  1 McAbee H1 BU-712-1006     M1         NA                     0         0.165
#>  2 McAbee H1 BU-712-1022A    M1         NA                     0         0.047
#>  3 McAbee H1 BU-712-1065B    M1         NA                     0        NA    
#>  4 McAbee H1 BU-712-1083     M1         NA                     0         0.075
#>  5 McAbee H1 BU-712-1122     M1         NA                     0         0.074
#>  6 McAbee H1 BU-712-1133     M1         NA                     0         0.051
#>  7 McAbee H1 BU-712-1210     M1         NA                     0         0.138
#>  8 McAbee H1 BU-712-1214A    M1         NA                     0         0.142
#>  9 McAbee H1 BU-712-1216     M1         NA                     0         0.05 
#> 10 McAbee H1 M-2015-1-104    M1         NA                     0         0.121
#> # ℹ 182 more rows
#> # ℹ 34 more variables: petiole_area <dbl>, blade_area <dbl>,
#> #   blade_perimeter <lgl>, feret <dbl>, minimum_feret <lgl>,
#> #   raw_blade_area <dbl>, raw_blade_perimeter <dbl>,
#> #   internal_raw_blade_area <dbl>, internal_raw_blade_perimeter <dbl>,
#> #   length_of_cut_perimeter <dbl>, no_of_primary_teeth <dbl>,
#> #   no_of_subsidiary_teeth <dbl>, leaf_area <dbl>, feret_diameter <dbl>, …
dilp_results$processed_morphotype_data
#> # A tibble: 61 × 38
#>    site  morphotype margin petiole_width petiole_area blade_area blade_perimeter
#>    <chr> <chr>       <dbl>         <dbl>        <dbl>      <dbl>           <dbl>
#>  1 McAb… M1              0        0.0962       0.0223       6.14             NaN
#>  2 McAb… M3              0      NaN          NaN          NaN                NaN
#>  3 McAb… M5              0        0.114        0.029        9.83             NaN
#>  4 McAb… M8              0        0.0765       0.0407       8.79             NaN
#>  5 McAb… M11             1      NaN          NaN          NaN                NaN
#>  6 McAb… M12             1        0.038        0.01         1.33             NaN
#>  7 McAb… M13             0        0.069        0.047        7.80             NaN
#>  8 McAb… M15             0      NaN          NaN          NaN                NaN
#>  9 McAb… M16             0      NaN          NaN          NaN                NaN
#> 10 McAb… M18             0        0.11         0.101       14.8              NaN
#> # ℹ 51 more rows
#> # ℹ 31 more variables: feret <dbl>, minimum_feret <dbl>, raw_blade_area <dbl>,
#> #   raw_blade_perimeter <dbl>, internal_raw_blade_area <dbl>,
#> #   internal_raw_blade_perimeter <dbl>, length_of_cut_perimeter <dbl>,
#> #   no_of_primary_teeth <dbl>, no_of_subsidiary_teeth <dbl>, leaf_area <dbl>,
#> #   feret_diameter <dbl>, fdr <dbl>, raw_blade_perimeter_corrected <dbl>,
#> #   internal_raw_blade_perimeter_corrected <dbl>, total_tooth_count <dbl>, …
…
